id;agent_msisdn;black_listed_date;black_listed_by;agent_type;spare_1;spare_2;spare_3;spare_4;spare_5
1;Licensed user-centric;2021-06-29T07:09:57;deliverables Pizza Functionality;User-centric;Groves Plastic virtual;Borders driver;redefine local;invoice Pa'anga Small Soft Bike;knowledge base
2;Savings Account;2021-06-29T06:12:27;Wyoming;Garden GB Creative;EXE fresh-thinking;invoice Garden parsing;Plastic Avon;Chief;Dynamic best-of-breed
3;Directives;2021-06-29T07:22:59;Berkshire Shoes Optimization;initiative sexy;Sleek;indigo maroon Plastic;Licensed Granite Car;Fantastic;Auto Loan Account Iran
4;Direct;2021-06-28T19:35:04;throughput Granite Proactive;schemas;eco-centric e-markets New Zealand;override Designer Human;Fresh card;haptic sensor;Car application Salad
5;Avon gold;2021-06-29T12:29:52;directional Global;Netherlands Shoes;ROI expedite;JBOD;system engine;Industrial Baby;Auto Loan Account Handcrafted
6;Chair Small Wooden Pants Facilitator;2021-06-29T04:56:25;Re-contextualized;encryption;Technician;channels;Saudi Riyal Avon installation;Automotive payment;deliverables Self-enabling Practical Wooden Ball
7;clicks-and-mortar proactive compressing;2021-06-29T11:58:24;white Rustic Frozen Pants lavender;generate;Granite Direct Licensed;connecting deposit mint green;Table optimize withdrawal;mindshare;implement Toys SAS
8;parse;2021-06-28T19:39:25;Liaison fuchsia Computer;Incredible invoice hacking;application Agent;Universal;Accounts harness;Tasty Mouse;Universal
9;Granite microchip;2021-06-29T05:57:42;Shoes;Comoro Franc application;Nebraska;Personal Loan Account;Branch tan;adapter;next generation
10;West Virginia New Jersey interfaces;2021-06-29T17:36:50;bluetooth;reciprocal adapter Outdoors;Re-contextualized;Practical Cotton Bike open-source;Avon encryption;mobile Tasty Granite Salad Plastic;Chicken Tools paradigms
