id;agent_msisdn;last_modified_date;last_transaction_id;total_cashin_transactions;total_cashout_transactions;total_incentive_commissions;spare_1;spare_2;spare_3;spare_4;spare_5
1;interface technologies Music;2021-06-29T12:54:55;Direct Montana;95568;38664;97569;Developer Utah;override Forward Strategist;application Mountain Virgin Islands, U.S.;Wooden index Incredible;PNG program
2;optical 1080p;2021-06-28T21:58:05;Principal Oregon;74924;35135;75730;web-enabled Iranian Rial Electronics;hard drive Toys;quantify asynchronous Forint;service-desk Corporate;Awesome Chicken Refined
3;Kansas Coordinator application;2021-06-29T08:51:55;solid state Maine Alabama;80008;56264;72437;South Carolina;GB invoice;motivating;reboot Money Market Account FTP;Manager ability benchmark
4;teal utilize;2021-06-28T22:29:03;Salad Lithuanian Litas;68623;96792;57654;front-end Configuration tan;B2B Gorgeous Metal Towels;Savings Account;auxiliary Zambia;impactful killer French Southern Territories
5;Germany FTP;2021-06-29T13:12:38;quantify Executive;50332;929;42605;Integration;auxiliary extend web services;Borders Buckinghamshire;Wooden payment;Tanzanian Shilling Avon copy
6;lime;2021-06-29T11:43:41;Keyboard;85734;42656;44293;Lao People's Democratic Republic;Tasty Fresh Shoes JSON motivating;Tala Savings Account;green Handmade Concrete Cheese dot-com;markets invoice
7;scalable Quality;2021-06-29T13:28:55;Configuration Versatile quantify;45745;25388;17065;encoding global;card;Awesome Computer Vista;Chair quantify Plastic;Human
8;Plains;2021-06-29T01:15:13;Consultant task-force;10781;25356;83737;payment Kip;frame Home Loan Account;engineer Granite;Borders;USB Jewelery compress
9;primary;2021-06-28T23:58:20;Home Loan Account Bedfordshire;62519;97798;39877;program Serbia;neural-net;zero defect Bedfordshire Dynamic;Auto Loan Account SMTP open architecture;digital compress Officer
10;well-modulated hacking Awesome Wooden Fish;2021-06-29T10:56:31;compressing motivating;19478;35139;59411;deposit Dynamic Martinique;implementation Grenada;Rustic Garden;data-warehouse;program Incredible
