id;agent_msisdn;amount;payment_date;payment_status;mobiquity_response;spare_1;spare_2;spare_3;spare_4;spare_5
1;Israel;73660;2021-06-29T10:42:42;PENDING;Music monitor New Jersey;Cuban Peso Peso Convertible Unbranded;integrated SAS;Customer users;Handcrafted Granite Gloves bypassing;Nebraska Macao optimal
2;ivory secondary;49181;2021-06-28T17:46:46;SUCCESS;Incredible Fresh Pants Belgium;optimizing;SQL Buckinghamshire;Angola Incredible standardization;Identity;deposit withdrawal end-to-end
3;framework;78732;2021-06-29T02:41:39;PENDING;compressing attitude;Gibraltar Pound;District;interface algorithm adapter;next-generation;USB New Israeli Sheqel
4;Checking Account Grocery;75520;2021-06-29T08:08:09;SUCCESS;AI brand Plastic;Group IB Planner;Awesome Future;Rest;Table multi-byte;multimedia payment
5;Product;31636;2021-06-29T08:06:34;SUCCESS;magenta;Handcrafted withdrawal;Technician;sensor;Licensed Frozen Pants;Borders
6;withdrawal;58217;2021-06-29T10:08:09;PENDING;granular next-generation THX;Towels;Garden;application;Buckinghamshire;Assistant
7;panel;30524;2021-06-29T00:03:27;FAILED;Shoes USB mission-critical;Function-based;product value-added global;Granite Licensed;driver Licensed Plastic Chips;Customer
8;Concrete Research sky blue;70674;2021-06-29T08:46:48;PENDING;invoice back-end Supervisor;Serbian Dinar Handmade tan;black Turkmenistan;invoice leverage indexing;project Tennessee Associate;Tasty Granite Chicken Plastic
9;Coordinator Baht Planner;11524;2021-06-28T22:24:13;FAILED;plug-and-play 1080p;monitor Gorgeous Crossroad;Intelligent Soft Hat ivory;COM Orchestrator;wireless Home Loan Account;Pataca Computer Awesome
10;interactive Awesome Concrete Gloves;12995;2021-06-29T05:24:54;SUCCESS;grow conglomeration;haptic;Automated maroon cross-platform;hacking;CSS;Directives
